*** Life<Cell> 29x20 ***

Generation = 0, Population = 47.
--------00---00---0-
--------------------
--0-----------------
--------------------
------0-------------
--0--0-00-----------
------------0-------
-------0------------
-------------------0
----------------0---
--------------0--00-
-----0--------0---0-
-------------0---0--
--0-----------------
0-----0-------------
---------------0----
--------------------
----0-----0------0--
00--0---------------
0-------------------
---0----0----0------
--------------------
--------------------
--------0-----------
------------------0-
-0----00---00-------
-------------0-----0
--------------------
------------------0-

Generation = 20, Population = 177.
.*-1............-...
.*..1*..-..-....-...
01**..*.............
**.-..*......-...-..
.....1.....-....-***
*.******.........1.*
...***.**....-..*..*
1...**......--*.**..
......1**0..1-.*....
.-.--...*1*.*.....0.
..0.**...-*....*....
..**....-0.1*..***.-
.*.**..-....**.*.*.-
..*...**-*...*.*.**.
..*1...1..***...-.*0
.-**....*.......*.1.
.*......*...-.1*-*..
.*.*.*...*1*.*.*.**.
.......**..-.*-*1**.
..**.1...-.-.0..*---
..*.*1...11....*....
.**....**.......*...
*.**-.*-.--...***-*-
.1.*..*............1
..0.1-**...*1..-.0..
..**..*****..*.*....
**--..**.....**.....
*..**....-..***..-.*
**1..**..-.-.....0*.

*** Life<Cell> 28x10 ***

Generation = 0, Population = 31.
----0-----
-0---0----
----------
-----00---
--0-------
-0--------
---------0
0-0-------
-0-0-0----
-------00-
-0--------
----------
-----0----
----------
----------
-----0----
-----0----
---------0
-------0--
---0-0----
----------
-------00-
-----0-0--
-0--------
----0-----
-0--------
----------
-------0--

Generation = 20, Population = 87.
....*-.-..
..1*-**...
.**.***-**
*.*..**...
**-....*..
*.0.--.0..
*-**...*..
*..*...*.0
.*..-.-*.*
*...**.*.*
.......*1*
**....0.**
.....*.*1-
**....**..
**.*-....*
.*-....-..
.***.....*
-...-..**.
.......*0.
*.-**.*.-.
-..1.**.-1
**..--....
*-........
......-...
..**..-.*1
.*.-0.....
.*.*......
.**..-...-

*** Life<Cell> 19x22 ***

Generation = 0, Population = 33.
------------0---------
-----------0-0--------
----------0-----------
--0-0-----------------
-0---------------0----
--------0-------------
-----------------00--0
------00--------0--0--
---------0------------
---0-------0----------
----------------0-----
-----0---------0------
--------000-0---------
----------0--0--------
-------------0--------
----------------------
0---0-----------------
----------------------
-----------0------0---

Generation = 20, Population = 128.
.***-.....1.1.0.*-...-
*.1..*.....1*...*..-..
...1......-*..*....-..
0.1.......**.1*.0..-..
.**.-.1...*.*-*-......
..*..-1*.*..1*..**1...
.*....**.*.*.***..*...
-....*..-**..*****....
..*...***...........-.
*.1*.-.**...-....*-.1.
...*00.*0.***.**...-*.
1..*.-.***..*-...-..-.
*.....*..*.........1.*
-..-.*.**-..-..-*.*.*1
..-.-*.*.**..**.....*0
-*........**.*.....*..
*.*****-....***......-
*..1...*....**.-.*....
.1...***.........1...-

*** Life<Cell> 26x28 ***

Generation = 0, Population = 24.
-----------0---------------0
------------------0---------
---------0------------------
-----------------------0----
----------------------------
----------------------------
----------------------------
----------------------------
--0-------------------------
--------------------0-------
---0------------------------
----------00----------------
-------0--------------------
----0--------0------0-------
--------------------0-------
----------------------------
----------------------------
----------------------------
--------0-0----------00-----
------------0----------0----
----------------------0-----
----------------------------
----------------------------
------------0---------------
---------------------0------
----------------------------

Generation = 20, Population = 264.
-..*...1.-*0----**..*01.-.--
..-0.1*-*-*-.-*...1.*-***.1-
*..*-0*-..-*1.-**...-*.--*1.
**0--0*1**.*.**..1..*.*.....
--.***-.*.**1.**0...*..**.-.
10.1***.-0..1*.*-..0...*-*-.
.-.-.**.-**.0*1....0..***.**
*1.**..1..-*.*-.-1-*.*1-..-*
....***...*.....*.*1.....*0-
*.*..-1*-*.1.**-.***-.-*.*.-
*.**.0-..-.....*..-0....1*-*
-...-*.....-.....1..-*.-1-.*
*..*-*1.***.-..**.*-...1*..*
.**..*.*.**..-.****..0...-.-
-1...-.*.-..*.11****......*-
--.**-*-******...0.....-.-**
.-1*.....*..*...............
*-.1.*.**-***.-.--..........
**.*.-.**...*...*...........
-1.-.-...*..**..******...*.*
.-...-***-***..-..*..*..*..*
.*..--.*0*..*...-*.*-....*.*
**11...*.1...**.-...-**.....
.-*1.0.-*0-.......*.*.......
.-1----*.*..1.*..*........*.
--0-0--0**--.1-****....-..*.

*** Life<Cell> 17x10 ***

Generation = 0, Population = 37.
------0---
0--0------
-0-000-000
-----0-0--
-0--0--00-
------0---
-------00-
---------0
----------
------0---
--------0-
----0-000-
---0-0----
----------
0-00------
--0--00---
---0-0---0

Generation = 20, Population = 44.
**....***.
..*...*.1-
*.*......*
..-.*....*
*.........
.......*..
*.*-..*...
.*..***.-.
.......-..
.........-
....1-.1..
.-...*.*..
.-...*....
-.*-**.*1.
.*.*.***..
*..**.....
.***0..-..

*** Life<Cell> 23x20 ***

Generation = 0, Population = 32.
------0----0------0-
0-------------------
-----------------0-0
---------------0----
------0-----0-------
--------------------
-------------0------
---------------0---0
--------0-----0-----
--------------------
--0-0---------------
--0-0--------0------
------0------------0
---0----------------
--0-----------------
--------------------
-0------------------
--------------0-----
-----0-------0------
----0------------0--
----------------0---
--------0--0--------
--------------------

Generation = 20, Population = 149.
..**.-.**..*--......
-.*..**...*.......-.
...*.-*..1*....*-...
...1..0..***..-...1.
*--.0-**.-**-*....-.
-**..*.0-..*...*...*
*.*..*---.*.....-..*
**....**.*****..-.**
***...*..*..-.*...**
*-..*.*.*..***-.0**.
*-*.*...........-*.*
.**..1..**.0....*..*
.**...-.......*.*...
...1.-..*..........*
.*.*...*-*-...*.**0*
..*.-*-*...--....***
......*1*-.*...-**..
*.....*-.*....**.**.
*...**.*1......*.*.*
*...1*.....**...**.*
***-.**-*.1*.*....*.
1-.......*..*.......
.**-..1*-.-.........

*** Life<Cell> 15x11 ***

Generation = 0, Population = 35.
-----------
-----------
0-0-0------
-00--------
---------0-
-0-----00--
-----------
-00000---00
0---000----
-0-------00
--0-0---0--
--00-------
-0-------0-
-0---------
-00----00--

Generation = 20, Population = 38.
-..**.*....
..*..***...
.-*-...-.1.
.....*10.*.
.....*-*..0
.....*****.
..-..***..-
....***....
.........-.
..-..**....
...........
..**..*.-..
-.**.*.-...
.*..-*.....
..*......-.

*** Life<Cell> 22x11 ***

Generation = 0, Population = 26.
-----------
----0-0---0
----------0
-----0-----
-----------
---0----0--
-----------
-----------
0-----0----
-0--------0
0---0------
-----------
-----------
-----------
---0----0--
------0--00
--0-0-0-0--
-----------
----0------
--0--0-----
----------0
-----------

Generation = 20, Population = 69.
.....-.....
...*.....**
.1..*...*1*
-***...**..
.0.*..-*...
*..-.......
.*-**-.***.
.1..-..*.0.
....*..*.**
*.-....*.-1
*.*...**.*.
.**...-.*.*
**....1..*.
**.....1...
**..**-.-..
....*......
.1.........
...1.......
.-.-1.1..**
-...**..*..
.-....**..*
-...--.1**.

*** Life<Cell> 26x16 ***

Generation = 0, Population = 37.
---------------0
----------0-----
-----------0----
----------------
----------------
----------0--0--
--------0-------
0---------------
0-----------0---
-0-00-----------
0---------------
----------0-----
------------00--
---------00-----
-------------00-
--------------0-
----------------
----0-----------
-00----------0--
---0---------0-0
-0-0--0---0----0
----------------
------------0--0
--------0-------
------------0---
----------------

Generation = 20, Population = 124.
.-......-.1...**
......*0.-1**..*
.0..-.1.*..*..-.
...**-1-*....*-.
*-....*.*.*..*-.
**1..-.-....**.-
*-.1***.*0......
**.***..--....-.
...*.*1.*.....-.
......*.**.-..1-
........*.*-**..
*.*..1**...*..**
*..*....*..*..*.
*..*...*...***-.
.**...**..*..*-.
.*.......**1....
.**.*.--.-.**...
..*.*.*.****-...
......*....-**.-
...**.-..**....*
....**...1**...-
-..-.....*.....-
1.......-..****.
.**......1..*.-.
*...........**..
.**..-.-...***.-

*** Life<Cell> 21x25 ***

Generation = 0, Population = 34.
--------0----------------
0--0---------------------
-------------------------
---------0------0-------0
----------0--------------
-------------------------
------0-------00---------
-----------------0-------
-------0-----0-----------
------------0------------
0--------0-----0---------
---------0----0----0-----
---------------0----0----
-------0--0------0-------
-0------0----------------
-------------------------
0-------0----------------
--0----------------------
0------------------------
----0--0-----------------
-----0-------------------

Generation = 20, Population = 170.
...1..**.*..0.*...**-..1-
.***.*.1...-.********0..1
.***..1....**...****.-.1*
.*.*...*.......*.*....1*-
.**-...*.1..****.*..--...
.....1**-..1*.*.--*....*.
..-...-*...-..*.*.**-....
.-1....*........**-*11.*.
..0....**....**.**0..*..1
...***.......-...*...*..-
1**.****.*..-.*..*.0**...
**..-1**...-..*.-*..**...
.**11....***..*...*.....-
.**........1..*..*...-..*
.*......*..-..*..*..*0.*-
.-*..*..-....**.*...11-.1
......1.**..1**..**.*1.1.
.......*.....****.*.-.--1
.............-..-1....-*1
.....*..*...-.......*-*..
......**-.....-.-.*-*.--0

*** Life<Cell> 21x11 ***

Generation = 0, Population = 46.
--0--------
----0---0-0
--000-----0
--0-------0
------00---
0---0------
0------0---
0----0--00-
-----0-----
--------0--
------0000-
---00------
--00-------
--------0-0
0----0-----
0----------
-00--0-----
---00------
---0-0---0-
-0----0----
--------0--

Generation = 20, Population = 75.
.0...-.**..
.*.1*.**.*.
**.*.*.*...
.*.1.*.-.*.
.....*...*.
-..-......*
-***.....**
.*.*.......
....-...*..
.-.**..-...
...**...*..
.1*..***.-.
.**.***...*
.-*.......0
*...***...*
*.****..-.*
*..*...***.
-.....**.*.
......*****
.-....**.**
-..-.......

*** Life<Cell> 21x14 ***

Generation = 0, Population = 31.
--------------
--------0-----
-----------00-
-------0------
------0--0-0--
0-0---------0-
-----0--------
----0--0--0---
---------0----
0-----------0-
---0-------0--
-------------0
--------------
--------------
-----0-0------
---------0--0-
------0-------
-------------0
------------00
0---------0---
-------0------

Generation = 20, Population = 108.
******.-..-...
.1.1.-.....**-
....***....*.*
***.**.*.....*
-..-**-*....**
-..-.***-..-.*
*-......-.-***
.*....*......*
0.--..*.....*.
1*1*-.*....*..
**--**0..*....
.-*.1*..-1....
.-.1.*...*....
...-1*..**1.**
****.*..**..**
...0-*..***.*.
...0..**......
......1.*..*..
.***0..*.**..*
--*.*.**-..**.
---**-*.-.***.

*** Life<Cell> 27x20 ***

Generation = 0, Population = 42.
----------000-------
-------0------------
--0--0------0-------
-----------0--------
------0--0--0-------
------------------0-
------0------0------
-------0---0--------
--------------------
-----0-------------0
-------------0------
------0-0-----------
---0----------------
------------------0-
--0--------0--0-----
--------------0-0---
-------------0--00--
-------0----0-----0-
-------------------0
--------------------
--------------------
------0-------------
--------0-0---------
--------------------
-----0--------------
-----00-------------
-----------------0--

Generation = 20, Population = 213.
..*....-.....***....
***......***1..*...-
**...**.***.*...0**.
.*...*********.*-*..
.*.*..***.******...-
..*.........---.0*..
-.0.-...*....**.**..
-..**...*....*......
..******....*..-..-*
.*...*.***.......***
..***..--..***.*-...
......**..*....***.-
*****..*.......1*...
**1..**1....*....***
1.1..**....**..0*...
-**......**.*...****
***..***..*.**...*.*
..*..***....**.**.-*
***.*-..*.*.*1.**..*
.1**.**..*..*..*.**.
.-.*..-.****.....*..
..*......**-.-..****
.....1.***....-****-
-.*.**..**.-.-.0.*.-
..1.***-..**..**0*-*
..*....*....**.-.11*
..*.-...*...*.--.-..

*** Life<Cell> 16x25 ***

Generation = 0, Population = 45.
---0---------------------
-------------0------0----
-------0--0--------0-----
----------------0--------
----------------0-----0--
-----0------------0--0--0
----0--------------------
0-----------0-0-------00-
-0--------------------0--
0--0--------------------0
-0-0--------0------------
0-----------------------0
-0----0------------------
---0---0-0-0-----0--0----
0-0-0---0--0----------0-0
------------0------------

Generation = 20, Population = 118.
..-**.....****-...--***..
-.-.-1....-*.1-......*..*
1*.-.....**...*.....**...
.**...---*......*....*...
....**1.*0*...*.*-...1**.
..-......-**-..**0...-**.
.*..--.-.***0*1*...**.-**
..**........*-*.*****..**
1.*-*.*.....*-..*....*...
......-......-**....*....
.....1.01*.*.**...-..-..*
........-..*.-.*....-...*
**.....-*-.*1.--.--.**.0*
*.*...-.*...*..*...***.*.
.*.*...-.*.*....*1****-..
...*......1...-.......-..

*** Life<Cell> 14x13 ***

Generation = 0, Population = 27.
-------------
----0-0---0--
-----0-------
-----0-----0-
0------0-----
--0--0-0----0
--0--0---0---
-------------
---00-0------
-0-0---------
--------0--0-
---------0---
--------0----
0-------0-0--

Generation = 20, Population = 58.
...-.****-.*-
.*0.*....1..*
1...1-1.....*
...1-..*....*
....-.1*-...-
***....*..1*-
******.**....
*.*...*.*....
-...*..*.-...
*.*....*.....
*...*.-..**..
*.*.*........
.*..*....*..*
..**-.....***

*** Life<Cell> 23x15 ***

Generation = 0, Population = 35.
---------------
-----0---0-----
------0-----0--
0---0-----00---
---------------
-------------0-
----0-----0-0-0
-----------00--
----------0----
0---0-----0--0-
000--0---------
-------------0-
---------------
-------0-----0-
-------------0-
-0-------------
-----0---------
---------------
-------0-------
-------------0-
-------------0-
---------------
----------0-0--

Generation = 20, Population = 129.
.***...**1-....
...-*-**...-.*.
.*...*-....**.*
.-*..*....1...*
.*.*.1.*..*...*
...-..*.1*....*
*...**..*..**.*
..**.-.*....*.*
*..-*......-*.*
.***.**...*..**
..**....1..-.**
...*-***.*....-
1..**..***.....
..1.*.1..*.....
*.*.*.1.*.1...-
*1.**.1...**1..
**...*...0*....
**..1-0.--...*.
**..1*-1......*
**...-.*....-.*
...-**.**1***.*
.*1..--.0.*..**
1.*1.....1-***.

*** Life<Cell> 18x26 ***

Generation = 0, Population = 24.
--------0---0-------------
----0---0-----------------
------------0------0------
------0-------------------
0------0------------------
----------------0--0----00
-------0----------------0-
--------------------------
-------------0-0------0---
--------------------------
--------------------------
----------0---------------
---0------------0---------
--------------------------
----------0---------0-----
------------------0-------
--------------------------
--------------------------

Generation = 20, Population = 160.
.-.......--.-.*..-..--.***
.*...1**....*.*.-..*...1..
.-..-*..*...*..*..**.....*
-.**..*.*1....*....*.-0.*.
..**..*......****-*.1.*.**
..**.--*.10......**.**....
*.**..-..-.....**..*.*...-
.-1.1..---***.1.*--*.***.*
..*.......*..*.*-......1*.
*0-.**.1.1*.*....*...1*...
-1-.**.-*......***...-*-..
.1.---....-.*-.*-..*..-...
-.**1-.*...1****.*.*.1.-..
-1.-.*.*.1**-.-1.*.*.-....
-*.*.*..**.1*....-**...-*.
*-.*1-.-..*.*-.**.**...*..
1..-.-.***....1*...1**...-
.-----****.***...-1.**0*0-

*** Life<Cell> 18x15 ***

Generation = 0, Population = 32.
-------0-----0-
0--------0----0
-----------0---
---------0---0-
---0------0---0
--00-0---------
-----------0---
---------------
----0---00----0
--0------------
0---------0----
---------------
0-------0------
-----0-----0---
----------0----
0---0---0-----0
--------------0
---------------

Generation = 20, Population = 87.
.*.-*--.1.*....
*...**...**...-
1.....***.*....
*1*-1.*.......-
*......-.......
*.*.....-.-....
*.-***0.-...-..
*.*.0*.-.......
.*...**.-....-1
......**.-...-.
.*.*.***.......
*....***.**.**.
*..1**1.***0.**
*.........*.-**
*....**.*.**...
.*..-***...*...
.1..*..*.*.**..
.*.*..-**-1....

*** Life<Cell> 16x16 ***

Generation = 0, Population = 35.
------0---------
------00----0---
---0------0--0--
---00-0---------
0---0-------00--
-00-------00----
----------------
----0-0---------
----0-----------
----0-------0-0-
-------0----0--0
---------------0
---0---0--------
-00-------------
------0---------
-------0-----0--

Generation = 20, Population = 82.
-1*1...***.-..0.
.*..*..**.*.....
-*.*.....*..-...
**.......-.-..**
*............***
......**.*.*.**.
..*..***1**.*...
...*.......****.
...*..**...*****
*-**...*...-..0.
......*....-.*-*
-....-.......*..
.......-....1*..
*.*.-**....*.1..
..*-...*..*.*..0
*.***.*..****-*.

*** Life<Cell> 25x13 ***

Generation = 0, Population = 26.
00------0----
-------------
-------------
0------------
---0----0----
-------------
--00---------
-------0-----
----0-00-----
-------------
-0-----------
-----0-----0-
-------------
-------------
----0--0-----
---------0---
-------------
------------0
0------------
------0------
--0----------
-------------
-0-----0-----
------0-0----
-------------

Generation = 20, Population = 97.
-....***.-1..
..1.1*.**-.-.
....-1***.1.-
.***-*1***-*.
......*1**.*.
..*...0..***1
............-
..*...*...*-*
.**.......*..
......*..-*.*
-**...-.....1
..-*1-..**-..
.-........*.-
..-.-.*...**.
......*...-.-
-.**.-...-...
1-....*......
*.*-.-......*
.***.1*---.**
-*-.....*..*.
..1...*-*1-**
**...1*-*1.*-
.*..*.*....0-
**...*--0*..*
.....-..-..*.

*** Life<Cell> 29x12 ***

Generation = 0, Population = 40.
0--0--------
-0---------0
--0-0-----0-
------0-----
--------00--
--------0---
--0---------
--------0---
--------0---
------------
-0---------0
------------
-------0----
---------0--
----0---0---
---0----0-0-
------------
------------
0-0---------
0---0-------
--0-------0-
-----0-----0
-----------0
---------0--
---0--------
-0---0------
------------
-0----0-----
-----00-----

Generation = 20, Population = 102.
............
.-........--
..*.-......-
1**-***0....
**......1..*
.***.*.***-.
.**..*.....*
.*..**.***.*
-*...*.*...*
...1.*...*..
*.....***..*
*.....-**...
1......-**.*
...........*
.*....*.....
..-....1..*.
......*.....
..1......*..
.*...*...*-.
.*...*...*..
..**.*-.**..
...-..*.*-1.
.*.....*1...
*.*1....-1.-
*.-*....1.*-
*.*.*-...-*.
**.**....*.*
*.*.*1..-*.*
**......0.*-

*** Life<Cell> 22x12 ***

Generation = 0, Population = 43.
----0-0--0--
-0------0---
00------0---
0-----------
---0-00-----
-----------0
-0----------
0-----------
--------0-0-
------------
-0--0---0---
-0--0----0--
-----0--0---
-0----------
-----0------
---0--------
------------
000----00-00
-0----0-----
---0-00-----
--------00--
------0-----

Generation = 20, Population = 81.
*.*.**...*.-
..1.*1...*.*
**..**...**.
.....*.-...-
....*.*.1-.-
....*...*..1
.....*..*..-
...-.*.*....
.-*...**-.-.
**.*.**1.-..
......*---**
.....-***..*
-.-......***
......*...**
.....*.-1*1-
......*..**.
........*.*.
..***..*.*..
..***....*..
0....**..-..
***0..*.....
***.***.....

*** Life<Cell> 11x13 ***

Generation = 0, Population = 32.
-------0-0-0-
-------00----
--000--0-0---
---------00--
---00--------
-0-00--------
0--0-0------0
-0--0--0----0
--0--0--0----
---00--------
---------00--

Generation = 20, Population = 34.
...*-......**
...*1........
.............
-.-...*.*.*..
.-0*..*.....*
--.*.-.**...*
.-.*..*....0*
-**..*.-.---*
..-.***...***
.-..**.....1.
....-.....*.-

*** Life<Cell> 13x23 ***

Generation = 0, Population = 40.
----0------00-0--------
--0-0------------------
-------------------00--
------------0---0-----0
-0-------0-------0--0--
--------0----0-----0--0
-00----00--------------
--0------0-0----0-0----
-------------0---------
-0---------------------
--------0----------0---
-----0--0-------0-0--0-
------0---0---0--------

Generation = 20, Population = 96.
....***...***....*...0.
.-..*.*...*..*.**......
-..-.......*-1..*-...**
....****........**...*-
....****.1...-.**-.....
-*..0...1..1.....*...*-
**.**......***.1.*-.1.1
.**.*...*.**....**..*..
.*...*...*...-.*..--*..
.*.**..*...*..*-*1.....
1...*..**.**..*....*.*0
....*.1...**.*.-...**..
.**.*-**.-....*.......1

*** Life<Cell> 22x24 ***

Generation = 0, Population = 33.
-----0------0-----------
--------------------0---
-00---------------------
------------------------
--------0------00-------
------------0-----------
------0--0--------0-----
--------------0---0-----
-------------------0----
------------0-----------
------------------------
-------------0----------
------------------------
-----------0-000-------0
------------0-----------
-----00-----------------
0-------------------0---
------------------------
-----00-0--------0---0--
------------------------
------------------------
------0-----------------

Generation = 20, Population = 181.
.....*.-..1.......-.-...
....-*1.-..1..*..*.*.--*
.******-.......-*..**1-.
..-...-*-***....--..**.*
.....*..1...**..*..*.*.1
..1..**.--..*.**...*.**.
..*-*..*...-1..**.**..*.
*.10-...*1.-.-.**..1..*.
*1..*..0*.*****...-*1-*.
*.-.*.....**...1.*.****.
-.--*...--*....-*...-...
*..**...*..1...-**....**
1..-..-.-.........*..1*1
*1*-...*...***..*..***..
.1.....-...**..*.*1-....
.1.....*..*0...**.***.1.
..**..*.....*..**..*.***
*.1*...*-**...**-**-..**
*.*......*........**....
*.*--.*.**........10..1*
..-.*........*-*..*...11
.0-1.*..***.*-1**--...*.
