*** Life<Cell> 20x20 ***

Generation = 0, Population = 12.
0-------------------
-0------------------
-----0--------------
----0-----0---------
--0-----------------
-----00-------------
---0----------------
--------------------
--------------------
--0-----------------
---0----------------
------------0-------
--------------------
--------------------
--------------------
--------------------
--------------------
--------------------
--------------------
--------------------

Generation = 1, Population = 34.
--------------------
--0--0--------------
-0----0---0---------
--00-----0-0--------
-0-0000---0---------
--000110------------
--0-000-------------
---0----------------
--0-----------------
-0------------------
----0-------0-------
---0-------0-0------
------------0-------
--------------------
--------------------
--------------------
--------------------
--------------------
--------------------
--------------------

Generation = 2, Population = 38.
--0--0--------------
---00-----0---------
0-00---0------------
-01--0--0---0-------
0--111--------------
---1---10-0---------
-01--1--------------
--0--00-------------
--------------------
0---0-------0-------
-0---0--------------
--0-------0---0-----
---0----------------
------------0-------
--------------------
--------------------
--------------------
--------------------
--------------------
--------------------

Generation = 3, Population = 71.
-0----0---0---------
0-0-1--0-0-0--------
-0---00---0-0-------
01-0-10--0-0-0------
------00--0-0-------
00-*--1*1--0--------
01--0*-00-0---------
--100-10------------
0-0-000-----0-------
---0-------0-0------
------0---0-0-0-----
-----0---0-0-0-0----
----0-----0-0-0-----
---0-------0-0------
------------0-------
--------------------
--------------------
--------------------
--------------------
--------------------

Generation = 4, Population = 29.
----00--------------
------0-------------
01-0-----0----------
1-----1-0-----0-----
------1-------------
---.---.-00---------
---0-.-1------------
----1-----0-0-------
--1-----------------
0----0--------------
---0---0------------
--------0-------0---
--------------------
--0-----------------
---0----------------
------------0-------
--------------------
--------------------
--------------------
--------------------

Generation = 5, Population = 75.
---011--------------
00-01--0-0----------
-*--0-----0---0-----
*--0-1*------0-0----
0----1*0000---0-----
---.--1.1110--------
--1--.0-00--0-------
--1--0-0-0---0------
00-000----0-0-------
-0000-00------------
0-0-000---------0---
---0-----0-----0-0--
--0-----0-------0---
-0------------------
----0-------0-------
---0-------0-0------
------------0-------
--------------------
--------------------
--------------------

*** Life<Cell> 10x10 ***

Generation = 0, Population = 36.
0000000000
0--------0
0--------0
0--------0
0--------0
0--------0
0--------0
0--------0
0--------0
0000000000

Generation = 1, Population = 24.
----------
--000000--
-0------0-
-0------0-
-0------0-
-0------0-
-0------0-
-0------0-
--000000--
----------

Generation = 2, Population = 48.
--000000--
--1----1--
01-0000-10
0-0----0-0
0-0----0-0
0-0----0-0
0-0----0-0
01-0000-10
--1----1--
--000000--

Generation = 3, Population = 40.
-0------0-
0-*0--0*-0
-*-1--1-*-
-01-00-10-
---0--0---
---0--0---
-01-00-10-
-*-1--1-*-
0-*0--0*-0
-0------0-

Generation = 4, Population = 32.
---0--0---
--.-00-.--
-.-*--*-.-
0-*-11-*-0
-0-1--1-0-
-0-1--1-0-
0-*-11-*-0
-.-*--*-.-
--.-00-.--
---0--0---

Generation = 5, Population = 48.
--0----0--
--.0110.--
0.-*00*-.0
-0*-**-*0-
-10*--*01-
-10*--*01-
-0*-**-*0-
0.-*00*-.0
--.0110.--
--0----0--

Generation = 6, Population = 32.
-0--00--0-
0-*-**-*-0
-*-.--.-*-
--.-..-.--
0*-.--.-*0
0*-.--.-*0
--.-..-.--
-*-.--.-*-
0-*-**-*-0
-0--00--0-

Generation = 7, Population = 32.
---0--0---
--*-**-*--
-*-.00.-*-
0-.-..-.-0
-*0.--.0*-
-*0.--.0*-
0-.-..-.-0
-*-.00.-*-
--*-**-*--
---0--0---

Generation = 8, Population = 24.
----------
--*0..0*--
-*-*--*-*-
-0*-..-*0-
-.-.--.-.-
-.-.--.-.-
-0*-..-*0-
-*-*--*-*-
--*0..0*--
----------

Generation = 9, Population = 40.
--00--00--
--*-..-*--
0*-*00*-*0
0-*-..-*-0
-.0.--.0.-
-.0.--.0.-
0-*-..-*-0
0*-*00*-*0
--*-..-*--
--00--00--

Generation = 10, Population = 48.
-0-1001-0-
0-.0..0.-0
-.-*--*-.-
10*-**-*01
0.-*--*-.0
0.-*--*-.0
10*-**-*01
-.-*--*-.-
0-.0..0.-0
-0-1001-0-

*** Life<Cell> 2x2 ***

Generation = 0, Population = 4.
00
00

Generation = 1, Population = 0.
--
--

Generation = 2, Population = 0.
--
--

Generation = 3, Population = 0.
--
--

Generation = 4, Population = 0.
--
--

Generation = 5, Population = 0.
--
--

*** Life<Cell> 2x2 ***

Generation = 0, Population = 1.
0-
--

Generation = 1, Population = 2.
-0
0-

Generation = 2, Population = 0.
--
--

Generation = 3, Population = 0.
--
--

Generation = 4, Population = 0.
--
--

Generation = 5, Population = 0.
--
--

*** Life<Cell> 4x4 ***

Generation = 0, Population = 4.
----
-00-
-00-
----

Generation = 1, Population = 8.
-00-
0--0
0--0
-00-

Generation = 2, Population = 8.
-11-
1--1
1--1
-11-

Generation = 3, Population = 8.
-**-
*--*
*--*
-**-

Generation = 4, Population = 8.
-**-
*--*
*--*
-**-

Generation = 5, Population = 8.
-**-
*--*
*--*
-**-

*** Life<Cell> 1x1 ***

Generation = 0, Population = 1.
0

Generation = 4, Population = 0.
-

*** Life<Cell> 2x2 ***

Generation = 0, Population = 2.
0-
-0

Generation = 2, Population = 0.
--
--

Generation = 4, Population = 0.
--
--

*** Life<Cell> 3x8 ***

Generation = 0, Population = 5.
------0-
-0---0--
--0--0--

Generation = 1, Population = 9.
-0-----0
0---01--
---0010-

Generation = 2, Population = 12.
--0-000-
-------0
0-011*10

Generation = 3, Population = 9.
-0--1-1-
0--0--01
--1--*--

Generation = 4, Population = 7.
--0---*-
-------*
00--1.-0

Generation = 5, Population = 14.
-0-0-0.-
000-0--*
1111-.11

*** Life<Cell> 8x3 ***

Generation = 0, Population = 5.
---
-0-
--0
---
---
-00
0--
---

Generation = 1, Population = 9.
-0-
0--
---
--0
-00
-11
--0
0--

Generation = 2, Population = 12.
--0
---
0-0
--1
0-1
0-*
0-1
-00

Generation = 3, Population = 9.
-0-
0--
--1
-0-
1--
--*
10-
-1-

Generation = 4, Population = 7.
--0
--0
0--
---
--1
--.
*--
-*0

Generation = 5, Population = 14.
-01
001
-01
0-1
-0-
0-.
.-1
-*1

*** Life<Cell> 1x1 ***

Generation = 0, Population = 1.
0

Generation = 1, Population = 0.
-

Generation = 2, Population = 0.
-

Generation = 3, Population = 0.
-

Generation = 4, Population = 0.
-

Generation = 5, Population = 0.
-

*** Life<Cell> 20x20 ***

Generation = 0, Population = 12.
0-------------------
-0------------------
-----0--------------
----0-----0---------
--0-----------------
-----00-------------
---0----------------
--------------------
--------------------
--0-----------------
---0----------------
------------0-------
--------------------
--------------------
--------------------
--------------------
--------------------
--------------------
--------------------
--------------------

Generation = 1, Population = 34.
--------------------
--0--0--------------
-0----0---0---------
--00-----0-0--------
-0-0000---0---------
--000110------------
--0-000-------------
---0----------------
--0-----------------
-0------------------
----0-------0-------
---0-------0-0------
------------0-------
--------------------
--------------------
--------------------
--------------------
--------------------
--------------------
--------------------

Generation = 2, Population = 38.
--0--0--------------
---00-----0---------
0-00---0------------
-01--0--0---0-------
0--111--------------
---1---10-0---------
-01--1--------------
--0--00-------------
--------------------
0---0-------0-------
-0---0--------------
--0-------0---0-----
---0----------------
------------0-------
--------------------
--------------------
--------------------
--------------------
--------------------
--------------------

Generation = 3, Population = 71.
-0----0---0---------
0-0-1--0-0-0--------
-0---00---0-0-------
01-0-10--0-0-0------
------00--0-0-------
00-*--1*1--0--------
01--0*-00-0---------
--100-10------------
0-0-000-----0-------
---0-------0-0------
------0---0-0-0-----
-----0---0-0-0-0----
----0-----0-0-0-----
---0-------0-0------
------------0-------
--------------------
--------------------
--------------------
--------------------
--------------------

Generation = 4, Population = 29.
----00--------------
------0-------------
01-0-----0----------
1-----1-0-----0-----
------1-------------
---.---.-00---------
---0-.-1------------
----1-----0-0-------
--1-----------------
0----0--------------
---0---0------------
--------0-------0---
--------------------
--0-----------------
---0----------------
------------0-------
--------------------
--------------------
--------------------
--------------------

Generation = 5, Population = 75.
---011--------------
00-01--0-0----------
-*--0-----0---0-----
*--0-1*------0-0----
0----1*0000---0-----
---.--1.1110--------
--1--.0-00--0-------
--1--0-0-0---0------
00-000----0-0-------
-0000-00------------
0-0-000---------0---
---0-----0-----0-0--
--0-----0-------0---
-0------------------
----0-------0-------
---0-------0-0------
------------0-------
--------------------
--------------------
--------------------

*** Life<Cell> 10x10 ***

Generation = 0, Population = 36.
0000000000
0--------0
0--------0
0--------0
0--------0
0--------0
0--------0
0--------0
0--------0
0000000000

Generation = 1, Population = 24.
----------
--000000--
-0------0-
-0------0-
-0------0-
-0------0-
-0------0-
-0------0-
--000000--
----------

Generation = 2, Population = 48.
--000000--
--1----1--
01-0000-10
0-0----0-0
0-0----0-0
0-0----0-0
0-0----0-0
01-0000-10
--1----1--
--000000--

Generation = 3, Population = 40.
-0------0-
0-*0--0*-0
-*-1--1-*-
-01-00-10-
---0--0---
---0--0---
-01-00-10-
-*-1--1-*-
0-*0--0*-0
-0------0-

Generation = 4, Population = 32.
---0--0---
--.-00-.--
-.-*--*-.-
0-*-11-*-0
-0-1--1-0-
-0-1--1-0-
0-*-11-*-0
-.-*--*-.-
--.-00-.--
---0--0---

Generation = 5, Population = 48.
--0----0--
--.0110.--
0.-*00*-.0
-0*-**-*0-
-10*--*01-
-10*--*01-
-0*-**-*0-
0.-*00*-.0
--.0110.--
--0----0--

Generation = 6, Population = 32.
-0--00--0-
0-*-**-*-0
-*-.--.-*-
--.-..-.--
0*-.--.-*0
0*-.--.-*0
--.-..-.--
-*-.--.-*-
0-*-**-*-0
-0--00--0-

Generation = 7, Population = 32.
---0--0---
--*-**-*--
-*-.00.-*-
0-.-..-.-0
-*0.--.0*-
-*0.--.0*-
0-.-..-.-0
-*-.00.-*-
--*-**-*--
---0--0---

Generation = 8, Population = 24.
----------
--*0..0*--
-*-*--*-*-
-0*-..-*0-
-.-.--.-.-
-.-.--.-.-
-0*-..-*0-
-*-*--*-*-
--*0..0*--
----------

Generation = 9, Population = 40.
--00--00--
--*-..-*--
0*-*00*-*0
0-*-..-*-0
-.0.--.0.-
-.0.--.0.-
0-*-..-*-0
0*-*00*-*0
--*-..-*--
--00--00--

Generation = 10, Population = 48.
-0-1001-0-
0-.0..0.-0
-.-*--*-.-
10*-**-*01
0.-*--*-.0
0.-*--*-.0
10*-**-*01
-.-*--*-.-
0-.0..0.-0
-0-1001-0-

*** Life<Cell> 2x2 ***

Generation = 0, Population = 4.
00
00

Generation = 1, Population = 0.
--
--

Generation = 2, Population = 0.
--
--

Generation = 3, Population = 0.
--
--

Generation = 4, Population = 0.
--
--

Generation = 5, Population = 0.
--
--

*** Life<Cell> 2x2 ***

Generation = 0, Population = 1.
0-
--

Generation = 1, Population = 2.
-0
0-

Generation = 2, Population = 0.
--
--

Generation = 3, Population = 0.
--
--

Generation = 4, Population = 0.
--
--

Generation = 5, Population = 0.
--
--

*** Life<Cell> 4x4 ***

Generation = 0, Population = 4.
----
-00-
-00-
----

Generation = 1, Population = 8.
-00-
0--0
0--0
-00-

Generation = 2, Population = 8.
-11-
1--1
1--1
-11-

Generation = 3, Population = 8.
-**-
*--*
*--*
-**-

Generation = 4, Population = 8.
-**-
*--*
*--*
-**-

Generation = 5, Population = 8.
-**-
*--*
*--*
-**-

*** Life<Cell> 1x1 ***

Generation = 0, Population = 1.
0

Generation = 4, Population = 0.
-

*** Life<Cell> 2x2 ***

Generation = 0, Population = 2.
0-
-0

Generation = 2, Population = 0.
--
--

Generation = 4, Population = 0.
--
--

*** Life<Cell> 3x8 ***

Generation = 0, Population = 5.
------0-
-0---0--
--0--0--

Generation = 1, Population = 9.
-0-----0
0---01--
---0010-

Generation = 2, Population = 12.
--0-000-
-------0
0-011*10

Generation = 3, Population = 9.
-0--1-1-
0--0--01
--1--*--

Generation = 4, Population = 7.
--0---*-
-------*
00--1.-0

Generation = 5, Population = 14.
-0-0-0.-
000-0--*
1111-.11

*** Life<Cell> 8x3 ***

Generation = 0, Population = 5.
---
-0-
--0
---
---
-00
0--
---

Generation = 1, Population = 9.
-0-
0--
---
--0
-00
-11
--0
0--

Generation = 2, Population = 12.
--0
---
0-0
--1
0-1
0-*
0-1
-00

Generation = 3, Population = 9.
-0-
0--
--1
-0-
1--
--*
10-
-1-

Generation = 4, Population = 7.
--0
--0
0--
---
--1
--.
*--
-*0

Generation = 5, Population = 14.
-01
001
-01
0-1
-0-
0-.
.-1
-*1

*** Life<Cell> 1x1 ***

Generation = 0, Population = 1.
0

Generation = 1, Population = 0.
-

Generation = 2, Population = 0.
-

Generation = 3, Population = 0.
-

Generation = 4, Population = 0.
-

Generation = 5, Population = 0.
-
